{
  "version": "2.0",
  "extensions": {
    "durableTask": {
      "hubName": "AdfPlayground",
      "tracing": {
        "traceInputsAndOutputs": false
      },
      "storageProvider": {
        "connectionStringName": "DurableFunctionsStorage",
        "controlQueueBatchSize": 32,
        "controlQueueVisibilityTimeout": "00:05:00",
        "partitionCount": 4,
        "workItemQueueVisibilityTimeout": "00:05:00"
      },
      "extendedSessionsEnabled": false,
      "extendedSessionIdleTimeoutInSeconds": 30,
      "maxConcurrentActivityFunctions": 30,
      "maxConcurrentOrchestratorFunctions": 30
    }
  },
  "logging": {
    "logLevel": {
      "DurableTask.AzureStorage": "Warning",
      "DurableTask.Core": "Warning",
      "ADFPlayground": "Information"
    },
    "applicationInsights": {
      "samplingSettings": {
        "isEnabled": false
      }
    },
    "console": {
      "isEnabled": "true"
    }
  }
}